[
	{
		"ylabel": "Minutes",
		"xval": "ltime",
		"xlabel": "Time",
		"xunit": "minute",
		"num_samples": 30,
		"title": "Run/Scheduled",
		"type": "bar",
		"counter": ["runtime","schtime"],
		"ds_names": ["Run", "Scheduled"],
		"tags": ["Time"],
		"yval": ["abs", "max"]
	}, 
	{
		"ylabel": "Minutes",
		"xval": "ltime",
		"xlabel": "Time",
		"xunit": "minute",
		"num_samples": 30,
		"title": "Run/Scheduled",
		"type": "line",
		"counter": ["runtime","schtime"],
		"ds_names": ["Run", "Scheduled"],
		"tags": ["Time"],
		"yval": ["abs", "max"]
	},
	{
		"ylabel": "Cycles",
		"xval": "ltime",
		"xlabel": "Time",
		"xunit": "hour",
		"num_samples": 30,
		"title": "Cycles",
		"type": "line",
		"counter": ["total_cycles"],
		"ds_names": ["Total Cycles"],
		"yval": ["abs"]
	}
]
